double Theta1 = I133;
double Theta2 = I211;
double Theta3 = I322;
double Theta4 = I411;
double Theta5 = I522;
double Theta6 = I633;
double Theta7 = I222;
double Theta8 = I311;
double Theta9 = I422;
double Theta10 = I511;
double Theta11 = I533;
double Theta12 = I611;
double Theta13 = I622;
double Theta14 = I212;
double Theta15 = I312;
double Theta16 = I412;
double Theta17 = I512;
double Theta18 = L2^2*m4;
double Theta19 = L2^2*m5;
double Theta20 = L2^2*m6;
double Theta21 = L7^2*m2;
double Theta22 = L11^2*m3;
double Theta23 = L11^2*m4;
double Theta24 = L11^2*m5;
double Theta25 = L11^2*m6;
double Theta26 = L12^2*m5;
double Theta27 = L12^2*m6;
double Theta28 = I223;
double Theta29 = I213;
double Theta30 = L3^2*m3;
double Theta31 = L3^2*m4;
double Theta32 = L3^2*m5;
double Theta33 = L3^2*m6;
double Theta34 = L4^2*m6;
double Theta35 = L8^2*m2;
double Theta36 = gx*m4;
double Theta37 = gx*m5;
double Theta38 = gx*m6;
double Theta39 = gx*m3;
double Theta40 = gx*m2;
double Theta41 = I513;
double Theta42 = I612;
double Theta43 = I613;
double Theta44 = gy*m4;
double Theta45 = gy*m5;
double Theta46 = gy*m6;
double Theta47 = gy*m3;
double Theta48 = gy*m2;
double Theta49 = I523;
double Theta50 = I623;
double Theta51 = I323;
double Theta52 = I313;
double Theta53 = I423;
double Theta54 = I413;
double Theta55 = m6;
double Theta56 = m4;
double Theta57 = m5;
double Theta58 = m2;
double Theta59 = m3;
double Theta60 = I233;
double Theta61 = I333;
double Theta62 = I433;
double Theta63 = L10^2*m3;
double Theta64 = gz*m3;
double Theta65 = gz*m4;
double Theta66 = gz*m5;
double Theta67 = gz*m6;
double Theta68 = gz*m2;
